<svg id="es_logo" version="1.1" viewBox="0 0 1080 256">
  <path id="es_logo_icon" d="m110.61 0-25.568 83.699-85.006-19.617 59.473 64.082-59.506 63.756 85.008-19.617 25.568 83.699 25.6-83.699 85.006 19.617-59.506-64.084 59.506-63.754-85.006 19.617-25.568-83.699zm-3.7871 76.834c0.08889-0.008829 0.16042 0.002141 0.21289 0.033204-6.3955 9.5117-5.0651 16.962-3.7461 20.504-0.11813-1.3201-0.06845-2.932 0.1582-5.0176 0.82848-5.618 3.2736-8.9132 4.3223-10.135 0.54094-0.67874 0.61437-0.17455 0.49804-0.005859-5.9414 13.081-1.2648 20.06 1.8125 22.85 0.30744 0.21573 0.65829 0.44326 0.98243 0.66211 4.2778 1.0503 6.3968-5.1508 3.5352-8.7266-0.52907-0.74624 0.45043-0.44622 0.85352-0.25195 1.5866 0.76476 4.6069 2.5097 6.3965 6.6367 1.1496 2.6576-0.25414 6.5811-2.502 7.7344 2.242 1.4895 4.6542 3.1657 7.2344 5.168 1.0723 0.83215 10.485 9.8874 10.074 19.432-0.0215 0.90929-0.1134 1.5576 0.04102 1.5117 2.3721-0.71362 9.8764-12.314 3.5137-22.904-4.1254-6.8652-18.768-16.515-18.84-16.559-1.2976-0.75289 3.9507 0.31513 8.1074 2.3242 7.2526 3.5052 34.331 19.923 6.8359 44.449-4.4376 3.9557-11.589 12.361-12.932 13.623-0.20962 0.22519-0.29228 0.04758-0.33008-0.01172-1.4488-2.4174-0.66554-12.367-16.996-12.389-8.3827-0.0117-20.345 0.46529-30.766-3.6016-18.973-7.4061-17.95-22.554-16.52-28.701 1.5629-8.3941 8.7795-11.084 8.6699-10.549-0.71215 3.4303-4.3773 14.741 0.23438 23.156 9.3231 19.085 32.667 11.912 46.209 16.555 9.8443 3.3747 9.2878 8.8413 10.188 10.535 0.37195 0.70036 3.503-3.863 5.457-7.6758 2.524-4.9168 2.1594-13.058-1.1738-19.088-1.5517-2.808-6.2155-7.7106-18.691-15.227-24.872-14.986-5.5954-34.058-2.8398-34.332zm-31.166 4.752c0.10538 0.022269 0.16602 0.16714 0.16602 0.45703 0 2.4203-5.0495 18.163 22.445 36.018 0.30233 0.18062 0.41864 0.55273 0.17188 0.55273-11.106 0.0416-16.931-4.2408-20.924-7.2539-4.3613-3.6371-5.8998-7.4409-6.3965-8.9727-0.29416-0.81586 0.16474-0.55708 0.25586-0.42578 2.1283 3.0872 8.1491 9.8102 12.83 10.938 0.14075 0.0299-12.403-9.4745-12.129-22.119-0.1018-3.537 2.8424-9.3492 3.5801-9.1934zm46.602 61.27c0.63234 0.07624 1.5237 0.46626 1.9473 1.0859 0.8018 1.1664-0.04618 2.8558-1.834 0.76757-0.62174-0.73368-1.1353-1.6371-0.63281-1.8223 0.12635-0.0471 0.30875-0.05667 0.51953-0.03125zm-15.816 6.4258c1.204 0.03438 2.2849 0.15567 3.2168 0.37891 7.2133 1.7252 10.607 7.6778 11.477 9.4844 0.25641 0.52884-0.27929 0.52344-0.27929 0.52344h-61.785s-0.8559-0.00167-0.90039-0.48633c-0.029088-0.31954-0.31287-1.4601 1.3418-1.7852 2.019-0.39041 8.0225-1.0322 12.807-2.0332 11.257-2.353 25.695-6.3227 34.123-6.082zm31.283 2.1074c5.8887 0.1775 14.835 3.1717 22.227 4.9004 3.3857 0.79144 7.6197 1.3539 9.0566 1.6094 0.40237 0.07408 0.756 0.52394 0.8457 0.72656 0.0927 0.16691 0.05674 0.58684 0.05274 0.71875 0 0.17828-0.17413 0.25918-0.23633 0.30078-0.05703 0.0359-0.30274 0.04883-0.30274 0.04883h-43.736s-0.45491-0.03319-0.19922-0.41406c0.9834-1.4604 4.2474-6.0813 8.7617-7.5137 0.97668-0.30926 2.1723-0.41791 3.5312-0.37695zm-82.965 10.703c0.82847 0 1.5039 0.67957 1.5039 1.5059 0 0.82844-0.67539 1.5-1.5039 1.5-0.8285 0-1.5-0.67151-1.5-1.5 0-0.82628 0.67152-1.5059 1.5-1.5059zm46.252 0.07031c10.458-0.0749 19.594 0.07617 20.178 0.07617 0.0669 0 0.31297 0.14434 0.35156 0.28516 0.14687 0.52525 0.12181 1.6693-0.06054 2.2207-0.0505 0.16222-0.1392 0.25132-0.29102 0.29883-0.49203 5e-3 -43.824 0-44.24 0-0.18818 0 0.32327-2.4386 0.42773-2.6016 0.07416-0.11588 0.21206-0.1853 0.41211-0.23047 5.0934 0 14.521 0.01047 23.223-0.04883zm67.854 0.03906c0.68937-1e-5 1.3542 0.01105 1.5742 0.0586 0.48023 0.10991 0.39059 2.5916-0.12305 2.7539-0.48836 0.0618-33.71 0.01172-44.977 0.01172-0.20523-0.0238-0.33729-0.18951-0.39062-0.27148-0.10591-0.16699-0.0883-2.1391 0-2.3125 0.10439-0.19609 0.25528-0.20193 0.42578-0.23047v0.00195h41.771c0.31569 0 1.0294-0.01171 1.7188-0.01172zm-110.84 0.00781-0.001953 0.00196h6.1758c0.09116 0 0.8656 0.01172 1.0449 0.01172 1.0545 0 0.2442 2.4121 0.16797 2.5723-0.19196 0.25788-1.1122 0.18946-1.207 0.18946h-6.1816c-0.19264-0.0238-0.432-0.15102-0.43945-0.23243-0.01436-0.16694-0.013672-2.0816-0.013672-2.2461 0-0.20323 0.26233-0.26774 0.45508-0.29688zm9.2168 0.03125h8.7344c0 0.0654-0.4053 1.9709-0.69726 3.9473-0.16898 1.1516-0.56177 2.4077-0.79297 3.3984-0.8285 3.5831-4.4377 6.501-7.5449 6.791 0.83366-2.7792 1.1063-4.0431 0.92774-4.8184-0.4759 0-5.5043 0.14964-5.9512-0.25976 0.0459 0 1.3195-0.88669 1.8457-1.4102 1.7259-1.7156 3.1554-3.9379 3.4785-7.6484zm-12.484 0.10938c-0.68844 0-1.25 0.55518-1.25 1.248 0 0.68997 0.56159 1.25 1.25 1.25 0.69288 0 1.25-0.56007 1.25-1.25 0-0.69294-0.55713-1.248-1.25-1.248zm-0.44336 0.47851h0.5918c0.25935 0 0.51562 0.15445 0.51562 0.46876 0 0.31252-0.22135 0.42517-0.33984 0.45507 0.08368 0.16279 0.16812 0.32997 0.25195 0.49219 0.02816 0.05288-0.010775 0.11524-0.072265 0.11524h-0.14062c-0.03493 0-0.064019-0.0348-0.074219-0.0586l-0.23438-0.52344h-0.31055v0.50196c0 0.0453-0.032528 0.08008-0.080078 0.08008h-0.10742c-0.04596 0-0.080078-0.03848-0.080078-0.08008l0.001953-1.373c0-0.0429 0.032355-0.07813 0.078125-0.07813zm0.18359 0.23243v0.47461h0.4082c0.15459 0 0.25195-0.10976 0.25195-0.23633 0-0.14317-0.097403-0.23828-0.25195-0.23828h-0.4082zm16.496 0.61914c-0.14075-0.00118-0.29196 0.07741-0.32031 0.16601l-0.47461 1.5449-1.5469-0.01171c-0.06362-0.00121-0.15704 0.11766-0.19922 0.25195l-0.16406 0.53711c-0.042259 0.13485-0.020681 0.25586 0.042969 0.25586l1.5449 0.01172-1.0254 3.332c-0.026679 0.08854 0.074608 0.17128 0.2168 0.17187l0.5625 0.00391c0.14075 0.00121 0.29234-0.07752 0.32031-0.16602l1.0254-3.332 1.5488 0.01172c0.06361 0 0.15764-0.1204 0.19922-0.25586l0.16406-0.53515c0.040757-0.13223 0.022289-0.25528-0.041016-0.25586l-1.5469-0.01172 0.47266-1.543c0.028229-0.08911-0.074094-0.16932-0.21484-0.16992l-0.56445-0.00586z" />
  <g id="es_logo_wormark">
    <path d="m 241.134,66.805928 c 0,-0.71756 0.64727,-1.3673 1.3688,-1.3673 h 2.8797 c 0.71943,0 1.3667,0.64975 1.3667,1.3673 v 47.640002 c 0,0.71755 -0.64726,1.3689 -1.3667,1.3689 h -2.8797 c -0.72149,0 -1.3688,-0.65139 -1.3688,-1.3689 V 66.805928" />
    <path d="m 292.794,64.725927 c 7.2705,0 12.523,2.514701 17.417,6.6906 0.57512,0.57574 0.64727,1.438801 0.0722,2.013801 -0.64933,0.64975 -1.4388,1.3673 -2.016,2.0162 -0.64728,0.717569 -1.0781,0.647469 -1.8697,-0.0716 -3.6713,-3.2386 -8.8515,-5.613299 -13.673,-5.613299 -11.371,0 -20.006,9.496899 -20.006,20.650999 0,11.083992 8.6351,20.799002 20.006,20.799002 7.9157,0 12.952,-3.022 12.952,-3.022 V 98.113628 h -8.2743 c -0.79157,0 -1.3667,-0.574921 -1.3667,-1.2948 v -2.6629 c 0,-0.78991 0.57512,-1.3673 1.3667,-1.3673 h 12.449 c 0.71941,0 1.2966,0.64748 1.2966,1.3673 v 16.479992 c 0,0.35848 -0.2886,0.93422 -0.5772,1.1523 0,0 -7.3405,4.7476 -17.775,4.7476 -14.39,0 -25.977,-11.441 -25.977,-25.832992 0,-14.392 11.587,-25.977 25.977,-25.977" />
    <path d="m 332.224,66.805928 c 0,-0.71756 0.57718,-1.3673 1.3687,-1.3673 h 2.8055 c 0.71942,0 1.3667,0.64975 1.3667,1.3673 v 44.185002 h 20.727 c 0.79157,0 1.3667,0.64725 1.3667,1.3688 v 2.08629 c 0,0.71755 -0.57512,1.3689 -1.3667,1.3689 h -24.899 c -0.79156,0 -1.3687,-0.65139 -1.3687,-1.3689 V 66.806028" />
    <path d="m 376.624,66.805928 c 0,-0.71756 0.57513,-1.3673 1.3667,-1.3673 h 28.354 c 0.79157,0 1.3667,0.64975 1.3667,1.3673 v 2.088 c 0,0.71899 -0.57512,1.3665 -1.3667,1.3665 h -24.18 v 17.561 h 20.653 c 0.71942,0 1.3688,0.645 1.3688,1.3665 v 2.0838 c 0,0.79404 -0.64934,1.3673 -1.3688,1.3673 h -20.653 v 18.352002 h 24.18 c 0.79157,0 1.3667,0.64725 1.3667,1.3688 v 2.08629 c 0,0.71755 -0.57512,1.3689 -1.3667,1.3689 h -28.354 c -0.79156,0 -1.3667,-0.65138 -1.3667,-1.3689 V 66.806128" />
    <path d="m 425.044,108.25592 c 0.36075,-0.43329 0.71943,-0.93566 1.0781,-1.369 0.71941,-0.93566 1.513,-1.5114 2.519,-0.64728 0.50297,0.43309 5.7574,5.469 12.162,5.469 5.8296,0 9.6431,-3.6694 9.6431,-7.9138 0,-4.968092 -4.3165,-7.917692 -12.593,-11.370992 -7.9157,-3.4569 -12.665,-6.6931 -12.665,-14.898 0,-4.8941 3.8857,-12.807 15.328,-12.807 7.0499,0 12.304,3.6684 12.304,3.6684 0.43289,0.21274 1.2966,1.0783 0.43289,2.4456 -0.2886,0.43227 -0.57718,0.93566 -0.86578,1.3679 -0.64727,1.0066 -1.3667,1.295 -2.5169,0.64747 -0.50297,-0.28818 -5.038,-3.3126 -9.4287,-3.3126 -7.6271,0 -9.9296,4.8958 -9.9296,7.9177 0,4.8218 3.6713,7.6295 9.7152,10.147 9.7152,3.9593 15.976,7.6285 15.976,15.976992 0,7.483 -7.1241,12.952 -15.545,12.952 -8.4908,0 -14.248,-4.9656 -15.184,-5.8298 -0.57512,-0.50317 -1.2945,-1.0781 -0.43083,-2.4446" />
    <path d="m 475.704,66.805928 c 0,-0.71756 0.64728,-1.3673 1.3688,-1.3673 h 2.8777 c 0.72149,0 1.3688,0.64975 1.3688,1.3673 v 47.640002 c 0,0.71755 -0.64726,1.3689 -1.3688,1.3689 h -2.8777 c -0.72148,0 -1.3688,-0.65139 -1.3688,-1.3689 V 66.805928" />
    <path d="m 532.334,98.685928 c -3.527,-7.843501 -6.9819,-15.759 -10.509,-23.603001 h -0.57307 l -10.509,23.603001 z M 498.15,113.94293 520.027,65.512928 c 0.21438,-0.433311 0.57719,-0.78909 1.2244,-0.78909 h 0.71943 c 0.64726,0 1.0059,0.355779 1.2224,0.78909 l 21.733,48.430002 c 0.43081,0.93813 -0.14425,1.87379 -1.2224,1.87379 h -2.8797 c -0.64726,0 -1.0802,-0.43329 -1.2245,-0.79156 l -5.3245,-11.875 h -25.547 l -5.2524,11.875 c -0.14424,0.35827 -0.57718,0.79156 -1.2244,0.79156 h -2.8777 c -1.0802,0 -1.6553,-0.93565 -1.2244,-1.87379" />
    <path d="m 555.89141,86.425493 c 0,0.207863 0.16629,0.39494 0.37415,0.39494 h 4.78086 c 4.01175,0 7.29599,-3.263451 7.29599,-7.295996 0,-3.990972 -3.28424,-7.254421 -7.29599,-7.254421 h -4.78086 c -0.20786,0 -0.37415,0.18707 -0.37415,0.39494 z m 2.1202,-1.57976 V 74.244714 h 2.74379 c 3.05559,0 5.27973,2.224136 5.27973,5.279723 0,3.076375 -2.22414,5.321296 -5.27973,5.321296 z" />
    <path d="m 571.30429,86.429775 c 0,0.208767 0.16701,0.396658 0.39666,0.396658 h 8.35068 c 0.22965,0 0.39666,-0.187891 0.39666,-0.396658 v -1.148219 c 0,-0.208767 -0.16701,-0.396657 -0.39666,-0.396657 h -6.59704 v -4.488494 h 5.57408 c 0.20877,0 0.39666,-0.167014 0.39666,-0.396658 v -1.169095 c 0,-0.208769 -0.18789,-0.396659 -0.39666,-0.396659 h -5.57408 v -4.258848 h 6.59704 c 0.22965,0 0.39666,-0.187891 0.39666,-0.39666 v -1.16909 c 0,-0.20877 -0.16701,-0.39666 -0.39666,-0.39666 h -8.35068 c -0.22965,0 -0.39666,0.18789 -0.39666,0.39666 z" />
    <path d="m 583.64448,86.426131 c 0,0.210685 0.16855,0.400302 0.4003,0.400302 h 7.5004 c 0.23175,0 0.4003,-0.189617 0.4003,-0.400302 v -1.158769 c 0,-0.210685 -0.16855,-0.400302 -0.4003,-0.400302 h -5.70957 V 72.478766 c 0,-0.21069 -0.18962,-0.4003 -0.40031,-0.4003 h -1.39052 c -0.23175,0 -0.4003,0.18961 -0.4003,0.4003 z" />
    <path d="m 590.094,93.185928 c 0.50916,0 0.96884,0.37515 0.96884,0.78743 v 1.6555 c 0,0.41392 -0.45968,0.78518 -0.96884,0.78518 H 556.24 c -0.51122,0 -0.97296,-0.371261 -0.97296,-0.78518 v -1.6555 c 0,-0.41228 0.46174,-0.78743 0.97296,-0.78743 h 33.854" />
    <path d="m 611.894,66.015928 c 0,-0.717551 0.64728,-1.292501 1.3667,-1.292501 h 1.7996 l 32.456,40.442003 h 0.14224 V 66.807428 c 0,-0.717561 0.57718,-1.366501 1.3687,-1.366501 h 2.519 c 0.71943,0 1.3667,0.648931 1.3667,1.366501 v 48.430002 c 0,0.72147 -0.64726,1.2964 -1.3667,1.2964 h -1.2966 l -33.031,-41.233002 h -0.0722 v 39.146992 c 0,0.71757 -0.57512,1.369 -1.3667,1.369 h -2.519 c -0.71942,0 -1.3667,-0.65138 -1.3667,-1.369 V 66.015827" />
    <path d="m 703.924,98.685928 c -3.527,-7.8437 -6.9819,-15.759 -10.509,-23.603001 h -0.57305 l -10.509,23.603001 z m -34.182,15.256002 21.875,-48.429002 c 0.21644,-0.43309 0.57512,-0.789921 1.2244,-0.789921 h 0.71736 c 0.64933,0 1.0101,0.35683 1.2224,0.789921 l 21.733,48.429002 c 0.43289,0.93813 -0.14023,1.87379 -1.2224,1.87379 h -2.8777 c -0.64727,0 -1.0781,-0.43247 -1.2244,-0.79157 l -5.3245,-11.877 h -25.545 l -5.2544,11.877 c -0.14424,0.3591 -0.57718,0.79157 -1.2244,0.79157 h -2.8777 c -1.0802,0 -1.6553,-0.93566 -1.2224,-1.87379" />
    <path d="m 728.244,113.15592 26.122,-42.458993 v -0.215819 h -22.669 c -0.71941,0 -1.3667,-0.64726 -1.3667,-1.3688 v -2.303 c 0,-0.71756 0.64728,-1.3665 1.3667,-1.3665 h 29.144 c 0.72147,0 1.3687,0.64893 1.3687,1.3665 v 0.93648 l -26.555,42.959992 v 0.0725 h 23.747 c 0.79362,0 1.3667,0.64893 1.3667,1.3663 v 2.3046 c 0,0.71757 -0.57307,1.369 -1.3667,1.369 h -29.791 c -0.71943,0 -1.3667,-0.65139 -1.3667,-1.369 v -1.2939" />
    <path d="m 808.184,98.685928 c -3.525,-7.8437 -6.9798,-15.759 -10.507,-23.603001 h -0.57513 l -10.507,23.603001 z m -34.182,15.256002 21.877,-48.429002 c 0.21438,-0.43309 0.57512,-0.789921 1.2224,-0.789921 h 0.72147 c 0.64522,0 1.006,0.35683 1.2204,0.789921 l 21.735,48.429002 c 0.43083,0.93813 -0.14424,1.87379 -1.2244,1.87379 h -2.8777 c -0.64728,0 -1.0802,-0.43247 -1.2245,-0.79157 l -5.3245,-11.877 h -25.547 l -5.2524,11.877 c -0.14424,0.3591 -0.57512,0.79157 -1.2265,0.79157 h -2.8756 c -1.0801,0 -1.6573,-0.93566 -1.2244,-1.87379" />
    <path d="m 857.334,91.345928 c 5.5389,0 10.362,-4.607601 10.362,-10.507001 0,-5.468999 -4.8236,-10.147 -10.362,-10.147 H 843.37 v 20.653 z m -19.647,-24.541 c 0,-0.717561 0.57717,-1.3665 1.3687,-1.3665 h 18.637 c 8.6371,0 15.689,6.7654 15.689,15.328 0,6.6213 -4.3907,12.162 -10.651,14.681 l 9.8596,18.279002 c 0.50297,0.93566 0,2.088 -1.2244,2.088 h -3.6693 c -0.64726,0 -1.008,-0.36074 -1.1502,-0.65139 l -9.573,-19.068003 h -13.743 v 18.349993 c 0,0.71757 -0.64728,1.369 -1.3688,1.369 h -2.8055 c -0.79157,0 -1.3687,-0.65138 -1.3687,-1.369 V 66.805038" />
    <path d="m 894.314,66.805928 c 0,-0.71756 0.57512,-1.3665 1.3667,-1.3665 h 28.354 c 0.79156,0 1.3667,0.64893 1.3667,1.3665 v 2.0888 c 0,0.719 -0.57513,1.3663 -1.3667,1.3663 h -24.18 v 17.561 h 20.655 c 0.71942,0 1.3667,0.644999 1.3667,1.3665 v 2.0838 c 0,0.794039 -0.64727,1.3665 -1.3667,1.3665 h -20.655 v 18.353002 h 24.18 c 0.79156,0 1.3667,0.64748 1.3667,1.3665 v 2.088 c 0,0.71756 -0.57513,1.369 -1.3667,1.369 h -28.354 c -0.79157,0 -1.3667,-0.65139 -1.3667,-1.369 V 66.806328" />
    <path d="m 945.974,66.015928 c 0,-0.717551 0.64728,-1.292501 1.3667,-1.292501 h 1.7996 l 32.454,40.442003 h 0.1423 V 66.807428 c 0,-0.717561 0.5771,-1.366501 1.3666,-1.366501 h 2.5211 c 0.7194,0 1.3667,0.648931 1.3667,1.366501 v 48.430002 c 0,0.72147 -0.6473,1.2964 -1.3667,1.2964 h -1.2945 l -33.029,-41.233002 h -0.0742 v 39.146992 c 0,0.71757 -0.57512,1.369 -1.3667,1.369 h -2.519 c -0.71941,0 -1.3667,-0.65138 -1.3667,-1.369 V 66.015827" />
    <path d="m 1032.864,111.49593 c 11.441,0 20.869,-9.3526 20.869,-20.796002 0,-11.445 -9.4287,-20.941 -20.869,-20.941 -11.443,0 -20.797,9.4967 -20.797,20.941 0,11.443002 9.3545,20.796002 20.797,20.796002 z m 0,-46.773002 c 14.392,0 25.907,11.585 25.907,25.977 0,14.392002 -11.515,25.833002 -25.907,25.833002 -14.395,0 -25.837,-11.441 -25.837,-25.833002 0,-14.393 11.443,-25.977 25.837,-25.977" />
    <path d="m 261.78991,157.81161 c 0,0.20877 0.16701,0.39666 0.39666,0.39666 h 8.35084 c 0.22965,0 0.39667,-0.18789 0.39667,-0.39666 v -1.14824 c 0,-0.20877 -0.16702,-0.39667 -0.39667,-0.39667 h -6.59716 v -4.48857 h 5.57418 c 0.20877,0 0.39667,-0.16702 0.39667,-0.39667 v -1.16911 c 0,-0.20878 -0.1879,-0.39667 -0.39667,-0.39667 h -5.57418 v -4.25893 h 6.59716 c 0.22965,0 0.39667,-0.18789 0.39667,-0.39666 v -1.16912 c 0,-0.20877 -0.16702,-0.39666 -0.39667,-0.39666 h -8.35084 c -0.22965,0 -0.39666,0.18789 -0.39666,0.39666 z" />
    <path d="m 274.13011,157.81161 c 0,0.20877 0.1879,0.39666 0.39667,0.39666 h 1.31525 c 0.22965,0 0.39667,-0.18789 0.39667,-0.39666 v -10.16715 c 0,0 0.0209,0 0.0209,0 l 9.06066,10.77259 h 0.5428 c 0.20877,0 0.39667,-0.16702 0.39667,-0.37579 v -14.05029 c 0,-0.20877 -0.1879,-0.39666 -0.39667,-0.39666 h -1.33613 c -0.22965,0 -0.39667,0.18789 -0.39667,0.39666 v 9.87487 c 0,0 -0.0209,0 -0.0209,0 l -9.06067,-10.48031 h -0.52192 c -0.20877,0 -0.39667,0.16702 -0.39667,0.37579 z" />
    <path d="m 285.5976,164.49299 c 0.34807,0 0.66231,0.37515 0.66231,0.78744 v 1.65549 c 0,0.41392 -0.31424,0.78518 -0.66231,0.78518 h -23.14256 c -0.34947,0 -0.66513,-0.37126 -0.66513,-0.78518 v -1.65549 c 0,-0.41229 0.31566,-0.78744 0.66513,-0.78744 h 23.14256" />
    <path d="m 263.70431,188.74902 c 0,0.20876 0.16701,0.39666 0.39666,0.39666 h 8.35068 c 0.22965,0 0.39666,-0.1879 0.39666,-0.39666 v -1.14823 c 0,-0.20876 -0.16701,-0.39665 -0.39666,-0.39665 h -6.59704 v -4.48849 h 5.57408 c 0.20877,0 0.39666,-0.16701 0.39666,-0.39665 v -1.1691 c 0,-0.20877 -0.18789,-0.39666 -0.39666,-0.39666 h -5.57408 v -4.25885 h 6.59704 c 0.22965,0 0.39666,-0.18789 0.39666,-0.39666 v -1.16909 c 0,-0.20877 -0.16701,-0.39666 -0.39666,-0.39666 h -8.35068 c -0.22965,0 -0.39666,0.18789 -0.39666,0.39666 z" />
    <path d="m 276.0445,188.74537 c 0,0.21068 0.16855,0.4003 0.40031,0.4003 h 7.5004 c 0.23174,0 0.4003,-0.18962 0.4003,-0.4003 v -1.15877 c 0,-0.21068 -0.16855,-0.4003 -0.4003,-0.4003 h -5.70957 v -12.38829 c 0,-0.21069 -0.18962,-0.4003 -0.40031,-0.4003 h -1.39052 c -0.23175,0 -0.4003,0.18961 -0.4003,0.4003 z" />
    <path d="m 306.20889,189.25505 c 0,0.69923 0.55915,1.32851 1.3286,1.32851 h 24.194 c 0.76918,0 1.3286,-0.6293 1.3286,-1.32851 v -2.0278 c 0,-0.6993 -0.55912,-1.3286 -1.3286,-1.3286 h -20.138 v -42.932 c 0,-0.69922 -0.6293,-1.3286 -1.3285,-1.3286 h -2.727 c -0.76918,0 -1.3286,0.62938 -1.3286,1.3286 z" />
    <path d="m 352.50889,166.17706 c 0,13.98499 11.118,25.10299 25.103,25.10299 13.985,0 25.173,-11.118 25.173,-25.103 0,-13.985 -11.188,-25.243 -25.173,-25.243 -13.985,0 -25.103,11.258 -25.103,25.24301 z m 4.8946,0 c 0,-11.118 9.0903,-20.34801 20.208,-20.34801 11.118,0 20.278,9.2301 20.278,20.34801 0,11.118 -9.1602,20.20799 -20.278,20.20799 -11.118,0 -20.208,-9.0903 -20.208,-20.20799 z" />
    <path d="m 422.22889,166.17706 c 0,13.98499 11.118,25.10299 25.103,25.10299 13.985,0 25.173,-11.118 25.173,-25.103 0,-13.985 -11.188,-25.243 -25.173,-25.243 -13.985,0 -25.103,11.258 -25.103,25.24301 z m 4.8946,0 c 0,-11.118 9.0903,-20.34801 20.208,-20.34801 11.118,0 20.278,9.2301 20.278,20.34801 0,11.118 -9.1602,20.20799 -20.278,20.20799 -11.1178,0 -20.208,-9.0903 -20.208,-20.20799 z" />
    <path d="m 491.96889,189.25505 c 0,0.69923 0.55911,1.32851 1.3285,1.32851 h 2.6571 c 0.69929,0 1.3286,-0.6293 1.3286,-1.32851 v -16.432 h 11.538 c 8.5305,0 15.593,-7.0625 15.593,-15.733 0,-8.46099 -7.0625,-15.453 -15.663,-15.453 h -15.453 c -0.76919,0 -1.3285,0.62938 -1.3285,1.3286 z m 5.3141,-21.607 v -20.69699 h 11.118 c 5.7336,0 10.629,4.33519 10.629,9.9993 0,6.0133 -4.8946,10.69799 -10.629,10.69799 z" />
  </g>
</svg>
